<define-tag pagetitle>DLA-888-1 logback</define-tag>
<define-tag report_date>2017-4-7</define-tag>
<define-tag secrefs>CVE-2017-5929 Bug#857343</define-tag>
<define-tag packages>logback</define-tag>
<define-tag isvulnerable>yes</define-tag>
<define-tag fixed>yes</define-tag>
<define-tag fixed-section>no</define-tag>

#use wml::debian::security

