<define-tag pagetitle>DLA-923-1 partclone</define-tag>
<define-tag report_date>2017-4-28</define-tag>
<define-tag secrefs>CVE-2017-6596 Bug#857966</define-tag>
<define-tag packages>partclone</define-tag>
<define-tag isvulnerable>yes</define-tag>
<define-tag fixed>yes</define-tag>
<define-tag fixed-section>no</define-tag>

#use wml::debian::security

