<define-tag pagetitle>DLA-1150-1 wpa</define-tag>
<define-tag report_date>2017-10-31</define-tag>
<define-tag secrefs>CVE-2017-13077 CVE-2017-13078 CVE-2017-13079 CVE-2017-1308 CVE-2017-13081 CVE-2017-13082 CVE-2017-13086 CVE-2017-1308 CVE-2017-13088</define-tag>
<define-tag packages>wpa</define-tag>
<define-tag isvulnerable>yes</define-tag>
<define-tag fixed>yes</define-tag>
<define-tag fixed-section>no</define-tag>

#use wml::debian::security

