<define-tag pagetitle>DLA-1562-1 poppler</define-tag>
<define-tag report_date>2018-10-31</define-tag>
<define-tag secrefs>CVE-2017-18267 CVE-2018-10768 CVE-2018-13988 CVE-2018-16646 Bug#898357 Bug#909802</define-tag>
<define-tag packages>poppler</define-tag>
<define-tag isvulnerable>yes</define-tag>
<define-tag fixed>yes</define-tag>
<define-tag fixed-section>no</define-tag>

#use wml::debian::security

