<define-tag pagetitle>DSA-4401-1 wordpress</define-tag>
<define-tag report_date>2019-3-01</define-tag>
<define-tag secrefs>CVE-2018-20147 CVE-2018-20148 CVE-2018-20149 CVE-2018-20150 CVE-2018-20151 CVE-2018-20152 CVE-2018-20153 CVE-2019-8942 Bug#916403</define-tag>
<define-tag packages>wordpress</define-tag>
<define-tag isvulnerable>yes</define-tag>
<define-tag fixed>yes</define-tag>
<define-tag fixed-section>no</define-tag>

#use wml::debian::security



</dl>
