<define-tag pagetitle>DSA-4408-1 liblivemedia</define-tag>
<define-tag report_date>2019-3-17</define-tag>
<define-tag secrefs>CVE-2019-6256 CVE-2019-7314 CVE-2019-9215</define-tag>
<define-tag packages>liblivemedia</define-tag>
<define-tag isvulnerable>yes</define-tag>
<define-tag fixed>yes</define-tag>
<define-tag fixed-section>no</define-tag>

#use wml::debian::security



</dl>
