<define-tag pagetitle>DSA-4497-1 linux</define-tag>
<define-tag report_date>2019-8-13</define-tag>
<define-tag secrefs>CVE-2015-8553 CVE-2017-18509 CVE-2018-5995 CVE-2018-20836 CVE-2018-20856 CVE-2019-1125 CVE-2019-3882 CVE-2019-3900 CVE-2019-10207 CVE-2019-10638 CVE-2019-10639 CVE-2019-13631 CVE-2019-13648 CVE-2019-14283 CVE-2019-14284 CVE-2019-15239</define-tag>
<define-tag packages>linux</define-tag>
<define-tag isvulnerable>yes</define-tag>
<define-tag fixed>yes</define-tag>
<define-tag fixed-section>no</define-tag>

#use wml::debian::security



</dl>
