<define-tag pagetitle>DLA-1779-1 389-ds-base</define-tag>
<define-tag report_date>2019-05-06</define-tag>
<define-tag secrefs>CVE-2019-3883 Bug#927939</define-tag>
<define-tag packages>389-ds-base</define-tag>
<define-tag isvulnerable>yes</define-tag>
<define-tag fixed>yes</define-tag>
<define-tag fixed-section>no</define-tag>

#use wml::debian::security

