<define-tag pagetitle>DLA-1761-1 ghostscript</define-tag>
<define-tag report_date>2019-04-23</define-tag>
<define-tag secrefs>CVE-2019-3835 CVE-2019-3838 Bug#925256 Bug#925257</define-tag>
<define-tag packages>ghostscript</define-tag>
<define-tag isvulnerable>yes</define-tag>
<define-tag fixed>yes</define-tag>
<define-tag fixed-section>no</define-tag>

#use wml::debian::security

