<define-tag pagetitle>DLA-1862-1 linux</define-tag>
<define-tag report_date>2019-07-27</define-tag>
<define-tag secrefs>CVE-2019-2101 CVE-2019-10639 CVE-2019-13272 Bug#930904</define-tag>
<define-tag packages>linux</define-tag>
<define-tag isvulnerable>yes</define-tag>
<define-tag fixed>yes</define-tag>
<define-tag fixed-section>no</define-tag>

#use wml::debian::security

