<define-tag pagetitle>DLA-1693-1 gpac</define-tag>
<define-tag report_date>2019-2-27</define-tag>
<define-tag secrefs>CVE-2018-7752 CVE-2018-20760 CVE-2018-20761 CVE-2018-20762  CVE-2018-20763</define-tag>
<define-tag packages>gpac</define-tag>
<define-tag isvulnerable>yes</define-tag>
<define-tag fixed>yes</define-tag>
<define-tag fixed-section>no</define-tag>

#use wml::debian::security

