<define-tag pagetitle>DLA-1671-1 coturn</define-tag>
<define-tag report_date>2019-2-11</define-tag>
<define-tag secrefs>CVE-2018-4056 CVE-2018-4058 CVE-2018-4059</define-tag>
<define-tag packages>coturn</define-tag>
<define-tag isvulnerable>yes</define-tag>
<define-tag fixed>yes</define-tag>
<define-tag fixed-section>no</define-tag>

#use wml::debian::security

