<define-tag pagetitle>DLA-1915-1 ghostscript</define-tag>
<define-tag report_date>2019-09-09</define-tag>
<define-tag secrefs>CVE-2019-14811 CVE-2019-14812 CVE-2019-14813 CVE-2019-14817</define-tag>
<define-tag packages>ghostscript</define-tag>
<define-tag isvulnerable>yes</define-tag>
<define-tag fixed>yes</define-tag>
<define-tag fixed-section>no</define-tag>

#use wml::debian::security

