<define-tag pagetitle>DLA-1891-1 openldap</define-tag>
<define-tag report_date>2019-8-19</define-tag>
<define-tag secrefs>CVE-2019-13057 CVE-2019-13565 Bug#932997 Bug#932998</define-tag>
<define-tag packages>openldap</define-tag>
<define-tag isvulnerable>yes</define-tag>
<define-tag fixed>yes</define-tag>
<define-tag fixed-section>no</define-tag>

#use wml::debian::security

